{
    "output": {
        "autogain#0": {
            "bypass": false,
            "input-gain": 0.0,
            "maximum-history": 15,
            "output-gain": 0.0,
            "reference": "Geometric Mean (MSI)",
            "silence-threshold": -70.0,
            "target": -16.0
        },
        "bass_enhancer#0": {
            "amount": 2.500000000000001,
            "blend": 0.0,
            "bypass": false,
            "floor": 20.0,
            "floor-active": false,
            "harmonics": 8.5,
            "input-gain": 0.0,
            "output-gain": 0.0,
            "scope": 100.0
        },
        "blocklist": [],
        "equalizer#0": {
            "balance": 0.0,
            "bypass": false,
            "input-gain": 0.0,
            "left": {
                "band0": {
                    "frequency": 28.738174228603842,
                    "gain": 6.62,
                    "mode": "RLC (BT)",
                    "mute": false,
                    "q": 1.644403823771979,
                    "slope": "x1",
                    "solo": false,
                    "type": "Bell"
                },
                "band1": {
                    "frequency": 53.850091570755154,
                    "gain": 8.01,
                    "mode": "RLC (BT)",
                    "mute": false,
                    "q": 1.6444038237719791,
                    "slope": "x1",
                    "solo": false,
                    "type": "Bell"
                },
                "band10": {
                    "frequency": 15336.699231206312,
                    "gain": 3.0,
                    "mode": "RLC (BT)",
                    "mute": false,
                    "q": 1.6444038237719791,
                    "slope": "x1",
                    "solo": false,
                    "type": "Bell"
                },
                "band2": {
                    "frequency": 100.90523980790812,
                    "gain": 5.0,
                    "mode": "RLC (BT)",
                    "mute": false,
                    "q": 1.6444038237719794,
                    "slope": "x1",
                    "solo": false,
                    "type": "Bell"
                },
                "band3": {
                    "frequency": 189.07799640996342,
                    "gain": 0.0,
                    "mode": "RLC (BT)",
                    "mute": false,
                    "q": 1.6444038237719794,
                    "slope": "x1",
                    "solo": false,
                    "type": "Bell"
                },
                "band4": {
                    "frequency": 354.2976439525226,
                    "gain": -3.0,
                    "mode": "RLC (BT)",
                    "mute": false,
                    "q": 1.6444038237719791,
                    "slope": "x1",
                    "solo": false,
                    "type": "Bell"
                },
                "band5": {
                    "frequency": 663.8890981166219,
                    "gain": -5.0,
                    "mode": "RLC (BT)",
                    "mute": false,
                    "q": 1.6444038237719794,
                    "slope": "x1",
                    "solo": false,
                    "type": "Bell"
                },
                "band6": {
                    "frequency": 1244.006958897993,
                    "gain": -2.0,
                    "mode": "RLC (BT)",
                    "mute": false,
                    "q": 1.6444038237719791,
                    "slope": "x1",
                    "solo": false,
                    "type": "Bell"
                },
                "band7": {
                    "frequency": 2331.041913742621,
                    "gain": 2.0,
                    "mode": "RLC (BT)",
                    "mute": false,
                    "q": 1.6444038237719794,
                    "slope": "x1",
                    "solo": false,
                    "type": "Bell"
                },
                "band8": {
                    "frequency": 4367.946951388736,
                    "gain": 5.0,
                    "mode": "RLC (BT)",
                    "mute": false,
                    "q": 1.6444038237719791,
                    "slope": "x1",
                    "solo": false,
                    "type": "Bell"
                },
                "band9": {
                    "frequency": 8184.735099642112,
                    "gain": 6.0,
                    "mode": "RLC (BT)",
                    "mute": false,
                    "q": 1.6444038237719791,
                    "slope": "x1",
                    "solo": false,
                    "type": "Bell"
                }
            },
            "mode": "IIR",
            "num-bands": 11,
            "output-gain": 0.0,
            "pitch-left": 0.0,
            "pitch-right": 0.0,
            "right": {
                "band0": {
                    "frequency": 28.738174228603842,
                    "gain": 6.62,
                    "mode": "RLC (BT)",
                    "mute": false,
                    "q": 1.644403823771979,
                    "slope": "x1",
                    "solo": false,
                    "type": "Bell"
                },
                "band1": {
                    "frequency": 53.850091570755154,
                    "gain": 8.01,
                    "mode": "RLC (BT)",
                    "mute": false,
                    "q": 1.6444038237719791,
                    "slope": "x1",
                    "solo": false,
                    "type": "Bell"
                },
                "band10": {
                    "frequency": 15336.699231206312,
                    "gain": 3.0,
                    "mode": "RLC (BT)",
                    "mute": false,
                    "q": 1.6444038237719791,
                    "slope": "x1",
                    "solo": false,
                    "type": "Bell"
                },
                "band2": {
                    "frequency": 100.90523980790812,
                    "gain": 5.0,
                    "mode": "RLC (BT)",
                    "mute": false,
                    "q": 1.6444038237719794,
                    "slope": "x1",
                    "solo": false,
                    "type": "Bell"
                },
                "band3": {
                    "frequency": 189.07799640996342,
                    "gain": 0.0,
                    "mode": "RLC (BT)",
                    "mute": false,
                    "q": 1.6444038237719794,
                    "slope": "x1",
                    "solo": false,
                    "type": "Bell"
                },
                "band4": {
                    "frequency": 354.2976439525226,
                    "gain": -3.0,
                    "mode": "RLC (BT)",
                    "mute": false,
                    "q": 1.6444038237719791,
                    "slope": "x1",
                    "solo": false,
                    "type": "Bell"
                },
                "band5": {
                    "frequency": 663.8890981166219,
                    "gain": -5.0,
                    "mode": "RLC (BT)",
                    "mute": false,
                    "q": 1.6444038237719794,
                    "slope": "x1",
                    "solo": false,
                    "type": "Bell"
                },
                "band6": {
                    "frequency": 1244.006958897993,
                    "gain": -2.0,
                    "mode": "RLC (BT)",
                    "mute": false,
                    "q": 1.6444038237719791,
                    "slope": "x1",
                    "solo": false,
                    "type": "Bell"
                },
                "band7": {
                    "frequency": 2331.041913742621,
                    "gain": 2.0,
                    "mode": "RLC (BT)",
                    "mute": false,
                    "q": 1.6444038237719794,
                    "slope": "x1",
                    "solo": false,
                    "type": "Bell"
                },
                "band8": {
                    "frequency": 4367.946951388736,
                    "gain": 5.0,
                    "mode": "RLC (BT)",
                    "mute": false,
                    "q": 1.6444038237719791,
                    "slope": "x1",
                    "solo": false,
                    "type": "Bell"
                },
                "band9": {
                    "frequency": 8184.735099642112,
                    "gain": 6.0,
                    "mode": "RLC (BT)",
                    "mute": false,
                    "q": 1.6444038237719791,
                    "slope": "x1",
                    "solo": false,
                    "type": "Bell"
                }
            },
            "split-channels": false
        },
        "limiter#0": {
            "alr": false,
            "alr-attack": 5.0,
            "alr-knee": 0.0,
            "alr-release": 50.0,
            "attack": 5.0,
            "bypass": false,
            "dithering": "8bit",
            "external-sidechain": false,
            "gain-boost": true,
            "input-gain": 0.0,
            "lookahead": 5.0,
            "mode": "Herm Thin",
            "output-gain": 0.0,
            "oversampling": "Half x4(2L)",
            "release": 5.0,
            "sidechain-preamp": 0.0,
            "stereo-link": 100.0,
            "threshold": 0.0
        },
        "plugins_order": [
            "autogain#0",
            "equalizer#0",
            "bass_enhancer#0",
            "limiter#0"
        ]
    }
}
